D:\SD\lab7\DatabaseProject\src\main\java\com\mycompany\databaseproject\dao\UserDao.java
D:\SD\lab7\DatabaseProject\src\main\java\com\mycompany\databaseproject\deleteDatabase.java
D:\SD\lab7\DatabaseProject\src\main\java\com\mycompany\databaseproject\insertDatabase.java
D:\SD\lab7\DatabaseProject\src\main\java\com\mycompany\databaseproject\TestUserDao.java
D:\SD\lab7\DatabaseProject\src\main\java\com\mycompany\databaseproject\updateDatabase.java
D:\SD\lab7\DatabaseProject\src\main\java\com\mycompany\databaseproject\DatabaseProject.java
D:\SD\lab7\DatabaseProject\src\main\java\com\mycompany\databaseproject\helper\DatabaseHelper.java
D:\SD\lab7\DatabaseProject\src\main\java\com\mycompany\databaseproject\model\User.java
D:\SD\lab7\DatabaseProject\src\main\java\com\mycompany\databaseproject\dao\Dao.java
